ID	Description	p.Val	FDR	phenotype	genes	NES
ADIPOGENESIS%WIKIPATHWAYS_20200710%WP236%HOMO SAPIENS	ADIPOGENESIS%WIKIPATHWAYS_20200710%WP236%HOMO SAPIENS	0.00149253731343284	0.145182291666667		PNPLA3/CDKN1A/SREBF1/SOCS1/CYP26B1/PLIN2/CEBPB/GADD45A/BMP3/IL6/SLC2A4/IRS1/DDIT3/STAT5A/ID3/GADD45B/TWIST1/PPARGC1A/LPIN1/WNT5B/LEP/AGT/RXRA/BMP4/PPARG/HMGA1/RARA/LPL/MEF2D/CEBPA/CNTFR/NR1H3/RB1	1.9343870761651
STEROL REGULATORY ELEMENT-BINDING PROTEINS (SREBP) SIGNALLING%WIKIPATHWAYS_20200710%WP1982%HOMO SAPIENS	STEROL REGULATORY ELEMENT-BINDING PROTEINS (SREBP) SIGNALLING%WIKIPATHWAYS_20200710%WP1982%HOMO SAPIENS	0.00162337662337662	0.145182291666667		LDLR/MVD/GPAM/INSIG1/SREBF1/HMGCS1/PPARGC1B/ACLY/HMGCR/IDI1/LPIN1/FASN/LSS/ACACA/PRKAA2/PPARG/SEC31B	2.21642115423656
CHOLESTEROL METABOLISM (INCLUDES BOTH BLOCH AND KANDUTSCH-RUSSELL PATHWAYS)%WIKIPATHWAYS_20200710%WP4718%HOMO SAPIENS	CHOLESTEROL METABOLISM (INCLUDES BOTH BLOCH AND KANDUTSCH-RUSSELL PATHWAYS)%WIKIPATHWAYS_20200710%WP4718%HOMO SAPIENS	0.00163398692810458	0.145182291666667		MVD/SREBF1/HMGCS1/HMGCR/MYLIP/MSMO1/ABCA1/NSDHL/HSD17B7/SC5D/IDI1/ACSL3/FASN/LSS/ABCG1/FADS1	2.09708461383874
NEURAL CREST DIFFERENTIATION%WIKIPATHWAYS_20200710%WP2064%HOMO SAPIENS	NEURAL CREST DIFFERENTIATION%WIKIPATHWAYS_20200710%WP2064%HOMO SAPIENS	0.00164744645799012	0.145182291666667		SOX9/MYC/HES1/TFAP2A/SNAI2/MSX1/FGFR2/AXIN2/DLL1/PMP22/NOTCH1/TWIST1/SNAI1/HDAC4/BMP4/ID1	1.93936962697895
SREBF AND MIR33 IN CHOLESTEROL AND LIPID HOMEOSTASIS%WIKIPATHWAYS_20200710%WP2011%HOMO SAPIENS	SREBF AND MIR33 IN CHOLESTEROL AND LIPID HOMEOSTASIS%WIKIPATHWAYS_20200710%WP2011%HOMO SAPIENS	0.00194174757281553	0.145182291666667		LDLR/SREBF1/HMGCS1/HMGCR/ABCA1/PPARGC1A/FASN	1.96639465325171
CHOLESTEROL BIOSYNTHESIS PATHWAY%WIKIPATHWAYS_20200710%WP197%HOMO SAPIENS	CHOLESTEROL BIOSYNTHESIS PATHWAY%WIKIPATHWAYS_20200710%WP197%HOMO SAPIENS	0.001953125	0.145182291666667		MVD/HMGCS1/HMGCR/MSMO1/NSDHL/SC5D/IDI1/LSS	1.94248250479646
ENVELOPE PROTEINS AND THEIR POTENTIAL ROLES IN EDMD PHYSIOPATHOLOGY%WIKIPATHWAYS_20200710%WP4535%HOMO SAPIENS	ENVELOPE PROTEINS AND THEIR POTENTIAL ROLES IN EDMD PHYSIOPATHOLOGY%WIKIPATHWAYS_20200710%WP4535%HOMO SAPIENS	0.00239234449760766	0.147438016528926		MAP2K1/CTGF	-2.0335937749153
BREAST CANCER PATHWAY%WIKIPATHWAYS_20200710%WP4262%HOMO SAPIENS	BREAST CANCER PATHWAY%WIKIPATHWAYS_20200710%WP4262%HOMO SAPIENS	0.00298507462686567	0.147438016528926		WNT3/CDKN1A/MYC/HES1/GADD45G/GADD45A/PIK3R3/AXIN2/DLL1/PIK3R1/JUN/AKT2/GADD45B/NOTCH1/WNT5B/FZD9/HEYL/BAK1/JAG2/HEY1	1.78271632304438
DNA DAMAGE RESPONSE (ONLY ATM DEPENDENT)%WIKIPATHWAYS_20200710%WP710%HOMO SAPIENS	DNA DAMAGE RESPONSE (ONLY ATM DEPENDENT)%WIKIPATHWAYS_20200710%WP710%HOMO SAPIENS	0.0030441400304414	0.147438016528926		WNT3/LDLR/CDKN1A/MYC/PLAU/PIK3R3/IRS1/PIK3R1/JUN/AKT2/WNT5B	1.859680677137
ENDOPLASMIC RETICULUM (ER) STRESS RESPONSE IN CORONAVIRUS INFECTION%WIKIPATHWAYS_20200710%WP4861%HOMO SAPIENS	ENDOPLASMIC RETICULUM (ER) STRESS RESPONSE IN CORONAVIRUS INFECTION%WIKIPATHWAYS_20200710%WP4861%HOMO SAPIENS	0.00330578512396694	0.147438016528926		PPP1R3B/PPP1R3C/DDIT3/PPP1R9B/PPP1R10/PPP1R15B/ATF4	1.84439379412364
MESODERMAL COMMITMENT PATHWAY%WIKIPATHWAYS_20200710%WP2857%HOMO SAPIENS	MESODERMAL COMMITMENT PATHWAY%WIKIPATHWAYS_20200710%WP2857%HOMO SAPIENS	0.00443786982248521	0.172868217054264		WNT3/BHLHE40/GATA6/RARG/TBX3/IQCJ-SCHIP1/AXIN2/DLL1/SOX17/BCORL1/AHDC1/ACACA/SNAI1/PITX2/BMP4/CSRP2/RGS10/MEIS1/ADAM19/PIAS1/TCF7L1/GATA3/LEFTY2/RPL38/FOXC1/PRKACA/CCND1	1.73288537971178
OSTEOBLAST DIFFERENTIATION%WIKIPATHWAYS_20200710%WP4787%HOMO SAPIENS	OSTEOBLAST DIFFERENTIATION%WIKIPATHWAYS_20200710%WP4787%HOMO SAPIENS	0.00465116279069767	0.172868217054264		WNT3/SOX9/WNT9A/FGFR2/PIK3R3/DLL1/PIK3R1/HES6/NOTCH1/WNT5B/JAG1/FZD9/BMP4/PPARG/JAG2/HEY1	1.7445907008915
NOTCH SIGNALING PATHWAY NETPATH%WIKIPATHWAYS_20200710%WP61%HOMO SAPIENS	NOTCH SIGNALING PATHWAY NETPATH%WIKIPATHWAYS_20200710%WP61%HOMO SAPIENS	0.00658978583196046	0.22608034469649		CDKN1A/MYC/HES1/DLL1/PIK3R1/HES6/NOTCH1/FBXW7/JAG1/SPEN/JAG2/HEY1/PSEN2	1.68769489669747
NONALCOHOLIC FATTY LIVER DISEASE%WIKIPATHWAYS_20200710%WP4396%HOMO SAPIENS	NONALCOHOLIC FATTY LIVER DISEASE%WIKIPATHWAYS_20200710%WP4396%HOMO SAPIENS	0.00755287009063444	0.240612861458783		SREBF1/NDUFC2-KCTD14/KCTD14/IL6/PIK3R3/IRS1/PIK3R1/DDIT3/JUN/AKT2/ADIPOR2/LEP/PRKAA2/ATF4/RXRA/CASP3/BAK1	1.55295745640099
HYPOTHESIZED PATHWAYS IN PATHOGENESIS OF CARDIOVASCULAR DISEASE%WIKIPATHWAYS_20200710%WP3668%HOMO SAPIENS	HYPOTHESIZED PATHWAYS IN PATHOGENESIS OF CARDIOVASCULAR DISEASE%WIKIPATHWAYS_20200710%WP3668%HOMO SAPIENS	0.0087527352297593	0.252949183303085		ENG/AGTR1/NR2C2/FBN1/POSTN/TGFBR2/SHC1/ANGPT2/SERPINE1/LTBP1/CTGF	-1.92825242648123
GLYCEROLIPIDS AND GLYCEROPHOSPHOLIPIDS%WIKIPATHWAYS_20200710%WP4722%HOMO SAPIENS	GLYCEROLIPIDS AND GLYCEROPHOSPHOLIPIDS%WIKIPATHWAYS_20200710%WP4722%HOMO SAPIENS	0.00907441016333938	0.252949183303085		PNPLA3/GPAM	1.84612420114413
WNT SIGNALING PATHWAY AND PLURIPOTENCY%WIKIPATHWAYS_20200710%WP399%HOMO SAPIENS	WNT SIGNALING PATHWAY AND PLURIPOTENCY%WIKIPATHWAYS_20200710%WP399%HOMO SAPIENS	0.0112721417069243	0.265871833084948		WNT3/LDLR/MYC/PLAU/AXIN2/JUN/WNT5B/FZD9	1.64707374194697
ENDOMETRIAL CANCER%WIKIPATHWAYS_20200710%WP4155%HOMO SAPIENS	ENDOMETRIAL CANCER%WIKIPATHWAYS_20200710%WP4155%HOMO SAPIENS	0.011400651465798	0.265871833084948		CDKN1A/MYC/GADD45G/GADD45A/FGFR2/PIK3R3/AXIN2/PIK3R1/AKT2/GADD45B	1.66936196432137
ENDODERM DIFFERENTIATION%WIKIPATHWAYS_20200710%WP2853%HOMO SAPIENS	ENDODERM DIFFERENTIATION%WIKIPATHWAYS_20200710%WP2853%HOMO SAPIENS	0.0119225037257824	0.265871833084948		WNT3/DUSP4/GATA6/RARG/IQCJ-SCHIP1/SOX17/BCORL1/AHDC1/NOTCH1/LEO1/DUSP2/CAND1/ACACA/MAP2K3	1.63283089243549
EPITHELIAL TO MESENCHYMAL TRANSITION IN COLORECTAL CANCER%WIKIPATHWAYS_20200710%WP4239%HOMO SAPIENS	EPITHELIAL TO MESENCHYMAL TRANSITION IN COLORECTAL CANCER%WIKIPATHWAYS_20200710%WP4239%HOMO SAPIENS	0.0119225037257824	0.265871833084948		WNT3/ID2/SNAI2/WNT9A/PIK3R3/DLL1/PIK3R1/AKT2/MAP2K6/NOTCH1/TWIST1/WNT5B/CLDN15/SNAI1/JAG1/MAP2K3/FZD9/PKP2/ID1	1.59563924391379
BMP2-WNT4-FOXO1 PATHWAY IN HUMAN PRIMARY ENDOMETRIAL STROMAL CELL DIFFERENTIATION%WIKIPATHWAYS_20200710%WP3876%HOMO SAPIENS	BMP2-WNT4-FOXO1 PATHWAY IN HUMAN PRIMARY ENDOMETRIAL STROMAL CELL DIFFERENTIATION%WIKIPATHWAYS_20200710%WP3876%HOMO SAPIENS	0.014	0.292103293413174		FOXO1/SMAD9/SFRP1/BMP2/DKK1	-1.67390826406085
PHOTODYNAMIC THERAPY-INDUCED NFE2L2 (NRF2) SURVIVAL SIGNALING%WIKIPATHWAYS_20200710%WP3612%HOMO SAPIENS	PHOTODYNAMIC THERAPY-INDUCED NFE2L2 (NRF2) SURVIVAL SIGNALING%WIKIPATHWAYS_20200710%WP3612%HOMO SAPIENS	0.0154525386313466	0.292103293413174		ABCG2/FOS/ABCC2	-1.68900728382322
HAIR FOLLICLE DEVELOPMENT: CYTODIFFERENTIATION (PART 3 OF 3)%WIKIPATHWAYS_20200710%WP2840%HOMO SAPIENS	HAIR FOLLICLE DEVELOPMENT: CYTODIFFERENTIATION (PART 3 OF 3)%WIKIPATHWAYS_20200710%WP2840%HOMO SAPIENS	0.0175879396984925	0.292103293413174		SFRP1/BMP6/DKK1/FOS/GAS1/CTGF	-1.63260719791041
AMP-ACTIVATED PROTEIN KINASE (AMPK) SIGNALING%WIKIPATHWAYS_20200710%WP1403%HOMO SAPIENS	AMP-ACTIVATED PROTEIN KINASE (AMPK) SIGNALING%WIKIPATHWAYS_20200710%WP1403%HOMO SAPIENS	0.0179445350734095	0.292103293413174		CDKN1A/SREBF1/PPARGC1B/HMGCR/SLC2A4/PIK3R3/PIK3R1/AKT2/ADIPOR2/FASN/LEP/ACACA/PRKAA2	1.59306718135002
NEPHROTIC SYNDROME%WIKIPATHWAYS_20200710%WP4758%HOMO SAPIENS	NEPHROTIC SYNDROME%WIKIPATHWAYS_20200710%WP4758%HOMO SAPIENS	0.0183908045977011	0.292103293413174		ADCK4/APOL1/ANLN/PODXL/CD151/LMNA/MYO1E/MYH9/COQ2/CD2AP/COL4A5/TRPC6	-1.70848341313977
WNT SIGNALING IN KIDNEY DISEASE%WIKIPATHWAYS_20200710%WP4150%HOMO SAPIENS	WNT SIGNALING IN KIDNEY DISEASE%WIKIPATHWAYS_20200710%WP4150%HOMO SAPIENS	0.0184842883548983	0.292103293413174		WNT3/WNT5B/FZD9	1.82423105364569
CHROMOSOMAL AND MICROSATELLITE INSTABILITY IN COLORECTAL CANCER %WIKIPATHWAYS_20200710%WP4216%HOMO SAPIENS	CHROMOSOMAL AND MICROSATELLITE INSTABILITY IN COLORECTAL CANCER %WIKIPATHWAYS_20200710%WP4216%HOMO SAPIENS	0.0193236714975845	0.292103293413174		CDKN1A/MYC/GADD45G/GADD45A/AXIN2/JUN/AKT2/GADD45B/PTGS2/CASP3/BAK1/RALGDS	1.58150620690415
T-CELL RECEPTOR AND CO-STIMULATORY SIGNALING%WIKIPATHWAYS_20200710%WP2583%HOMO SAPIENS	T-CELL RECEPTOR AND CO-STIMULATORY SIGNALING%WIKIPATHWAYS_20200710%WP2583%HOMO SAPIENS	0.0194805194805195	0.292103293413174		ZAP70/FYN/PRKCA/ITK/DYRK2/NFATC2	-1.66865934287381
NUCLEAR RECEPTORS META-PATHWAY%WIKIPATHWAYS_20200710%WP2882%HOMO SAPIENS	NUCLEAR RECEPTORS META-PATHWAY%WIKIPATHWAYS_20200710%WP2882%HOMO SAPIENS	0.0198019801980198	0.292103293413174		BHLHE40/GPAM/SREBF1/MYC/CYP3A5/CPEB4/HES1/SLC2A6/SLC2A5/SNAI2/SLC5A6/PLK2/SLC2A4/HBEGF/VDR/SLC2A1/JUN/PDE4B/GADD45B/SLC6A2/PPARGC1A/ME1/PTGS2/DNAJB1/FASN/NAV3/CYP2A6/RXRA/CBR1/ETNK2/ALAS1/RGS2/SLC19A2/ARL5B/HMOX1/SLC6A9/GCC1/EPHA2	1.45616164784571
NETRIN-UNC5B SIGNALING PATHWAY%WIKIPATHWAYS_20200710%WP4747%HOMO SAPIENS	NETRIN-UNC5B SIGNALING PATHWAY%WIKIPATHWAYS_20200710%WP4747%HOMO SAPIENS	0.0201005025125628	0.292103293413174		PPP2R1B/FYN/ALPL/MAP2K1/PRKCA/RGMA/NTN4/CTGF	-1.58028046688416
HIPPO-MERLIN SIGNALING DYSREGULATION%WIKIPATHWAYS_20200710%WP4541%HOMO SAPIENS	HIPPO-MERLIN SIGNALING DYSREGULATION%WIKIPATHWAYS_20200710%WP4541%HOMO SAPIENS	0.0203488372093023	0.292103293413174		ITGA8/TEK/KDR/INSR/IGF1R/KIT/CDH12/ITGB5/MET/ITGA9/ITGA4/PAK3/CTGF	-1.49048109972322
SUDDEN INFANT DEATH SYNDROME (SIDS) SUSCEPTIBILITY PATHWAYS%WIKIPATHWAYS_20200710%WP706%HOMO SAPIENS	SUDDEN INFANT DEATH SYNDROME (SIDS) SUSCEPTIBILITY PATHWAYS%WIKIPATHWAYS_20200710%WP706%HOMO SAPIENS	0.0209580838323353	0.292103293413174		BHLHE40/PPARGC1B/HES1/CEBPB/IL6/SLC1A3/RET/EN1/JUN/REST/ADCYAP1R1/PPARGC1A/TF/VEGFA/CASP3	1.56359072745181
TP53 NETWORK%WIKIPATHWAYS_20200710%WP1742%HOMO SAPIENS	TP53 NETWORK%WIKIPATHWAYS_20200710%WP1742%HOMO SAPIENS	0.0218253968253968	0.294973544973545		CDKN1A/MYC/GADD45A/TNFSF10	1.7668576863476
NON-SMALL CELL LUNG CANCER%WIKIPATHWAYS_20200710%WP4255%HOMO SAPIENS	NON-SMALL CELL LUNG CANCER%WIKIPATHWAYS_20200710%WP4255%HOMO SAPIENS	0.0225442834138486	0.295727953016956		CDKN1A/GADD45G/GADD45A/PIK3R3/PIK3R1/STAT5A/AKT2/GADD45B/CRABP2/RXRA/CASP3/BAK1	1.56094275182255
