ID	Description	p.Val	FDR	phenotype	genes	NES
CYTOPLASMIC RIBOSOMAL PROTEINS%WIKIPATHWAYS_20200710%WP477%HOMO SAPIENS	CYTOPLASMIC RIBOSOMAL PROTEINS%WIKIPATHWAYS_20200710%WP477%HOMO SAPIENS	0.00154320987654321	0.098021978021978		RPL36/RPS23/RPLP1/RPS3/RPL36A/RPL26/RPL18A/RPL32/RPL15/RPL12/RPL10/RPL7A/RPS7/RPS2/RPL38/RPS14/RPS4X/RPS19/RPS9/RPS8/RPS11/RPS24/RPL41/RPL22/RPS25/RPS15/RPL8/RPL29/RPS13/RPL14/RPL23A/RPL27A/RPL21/RPL30/RPL17/RPLP2/RPS15A/RPL37A/RPL24/FAU/RPS17/RPL31/RPL13/RPL23/RPS20/RPL7/RPL11	-2.08379938687554
CHOLESTEROL METABOLISM (INCLUDES BOTH BLOCH AND KANDUTSCH-RUSSELL PATHWAYS)%WIKIPATHWAYS_20200710%WP4718%HOMO SAPIENS	CHOLESTEROL METABOLISM (INCLUDES BOTH BLOCH AND KANDUTSCH-RUSSELL PATHWAYS)%WIKIPATHWAYS_20200710%WP4718%HOMO SAPIENS	0.0028735632183908	0.098021978021978		SREBF1/MVD/HMGCS1/FASN/MYLIP/ABCG1/MSMO1/FADS1/IDI1/NSDHL/ELOVL3/ACSL3/DHCR24/SC5D/HMGCR/LSS/ACSL1/HSD17B7/DHCR7/SQLE/ABCA1/CYP51A1	1.86709973495814
PANCREATIC ADENOCARCINOMA PATHWAY%WIKIPATHWAYS_20200710%WP4263%HOMO SAPIENS	PANCREATIC ADENOCARCINOMA PATHWAY%WIKIPATHWAYS_20200710%WP4263%HOMO SAPIENS	0.0028735632183908	0.098021978021978		CDKN1A/GADD45A/VEGFA/GADD45G/GADD45B/PIK3R3/DUSP6/RALGDS/PIK3R1/PRKCD	1.83277274364631
DNA DAMAGE RESPONSE (ONLY ATM DEPENDENT)%WIKIPATHWAYS_20200710%WP710%HOMO SAPIENS	DNA DAMAGE RESPONSE (ONLY ATM DEPENDENT)%WIKIPATHWAYS_20200710%WP710%HOMO SAPIENS	0.00288184438040346	0.098021978021978		WNT3/CDKN1A/LDLR/MYC/PDK1/PIK3R3/PIK3R1/PLAU/PIK3C2B/BCL6/IRS1	1.81481962033589
ENDOMETRIAL CANCER%WIKIPATHWAYS_20200710%WP4155%HOMO SAPIENS	ENDOMETRIAL CANCER%WIKIPATHWAYS_20200710%WP4155%HOMO SAPIENS	0.00288184438040346	0.098021978021978		CDKN1A/GADD45A/GADD45G/GADD45B/MYC/PIK3R3/PIK3R1/AXIN2	1.8621036711009
OSTEOBLAST DIFFERENTIATION%WIKIPATHWAYS_20200710%WP4787%HOMO SAPIENS	OSTEOBLAST DIFFERENTIATION%WIKIPATHWAYS_20200710%WP4787%HOMO SAPIENS	0.00290697674418605	0.098021978021978		WNT3/SOX9/HES6/HEY2/NOTCH1/JAG2/JAG1/PIK3R3/DLL1/PRKCI/PIK3R1/WNT9A/PIK3C2B/PRKCD	1.84073441783076
WNT SIGNALING PATHWAY AND PLURIPOTENCY%WIKIPATHWAYS_20200710%WP399%HOMO SAPIENS	WNT SIGNALING PATHWAY AND PLURIPOTENCY%WIKIPATHWAYS_20200710%WP399%HOMO SAPIENS	0.00291545189504373	0.098021978021978		WNT3/LDLR/MYC/PRKCI/PLAU/AXIN2/PRKCD/RACGAP1	1.74474505099216
NOTCH SIGNALING PATHWAY NETPATH%WIKIPATHWAYS_20200710%WP61%HOMO SAPIENS	NOTCH SIGNALING PATHWAY NETPATH%WIKIPATHWAYS_20200710%WP61%HOMO SAPIENS	0.00292397660818713	0.098021978021978		CDKN1A/MYC/HES1/HES6/HEY2/NOTCH1/JAG2/JAG1/DLL1/PIK3R1/NUMBL/SPEN	1.8393974643894
CHROMOSOMAL AND MICROSATELLITE INSTABILITY IN COLORECTAL CANCER %WIKIPATHWAYS_20200710%WP4216%HOMO SAPIENS	CHROMOSOMAL AND MICROSATELLITE INSTABILITY IN COLORECTAL CANCER %WIKIPATHWAYS_20200710%WP4216%HOMO SAPIENS	0.0029940119760479	0.098021978021978		CDKN1A/GADD45A/GADD45G/GADD45B/MYC/RALGDS/CASP3/AXIN2/PTGS2	1.84642590627062
STEROL REGULATORY ELEMENT-BINDING PROTEINS (SREBP) SIGNALLING%WIKIPATHWAYS_20200710%WP1982%HOMO SAPIENS	STEROL REGULATORY ELEMENT-BINDING PROTEINS (SREBP) SIGNALLING%WIKIPATHWAYS_20200710%WP1982%HOMO SAPIENS	0.003003003003003	0.098021978021978		LDLR/PPARGC1B/SREBF1/INSIG1/ACLY/ACACA/MVD/GPAM/HMGCS1/FASN/LPIN1/IDI1	2.19353028685813
MESODERMAL COMMITMENT PATHWAY%WIKIPATHWAYS_20200710%WP2857%HOMO SAPIENS	MESODERMAL COMMITMENT PATHWAY%WIKIPATHWAYS_20200710%WP2857%HOMO SAPIENS	0.00303030303030303	0.098021978021978		BHLHE40/WNT3/ACACA/GATA6/AHDC1/BCORL1/TBX3/DLL1/ADAM19/AXIN2/SMAD6/ARL4A/MEIS1/SNAI1/RARG	1.68100316380617
ADIPOGENESIS%WIKIPATHWAYS_20200710%WP236%HOMO SAPIENS	ADIPOGENESIS%WIKIPATHWAYS_20200710%WP236%HOMO SAPIENS	0.00306748466257669	0.098021978021978		PNPLA3/CDKN1A/GADD45A/SREBF1/CEBPB/SOCS3/GADD45B/AGT/CYP26B1/PLIN2/SOCS1/STAT5A/GATA2/PPARGC1A/SLC2A4/LPIN1/CNTFR/NR3C1/TNF/PPARA/LEP/ID3/IRS1/TWIST1/AGPAT2	1.99736198688184
BREAST CANCER PATHWAY%WIKIPATHWAYS_20200710%WP4262%HOMO SAPIENS	BREAST CANCER PATHWAY%WIKIPATHWAYS_20200710%WP4262%HOMO SAPIENS	0.00306748466257669	0.098021978021978		WNT3/CDKN1A/GADD45A/GADD45G/GADD45B/MYC/HES1/HEY2/NOTCH1/JAG2/PIK3R3/DLL1/PIK3R1/AXIN2	1.94204388224056
ENDODERM DIFFERENTIATION%WIKIPATHWAYS_20200710%WP2853%HOMO SAPIENS	ENDODERM DIFFERENTIATION%WIKIPATHWAYS_20200710%WP2853%HOMO SAPIENS	0.00307692307692308	0.098021978021978		WNT3/DUSP4/ACACA/GATA6/NOTCH1/AHDC1/BCORL1/MAP2K3/DUSP2/NR3C1/LEO1/RARG	1.63983875591085
MELANOMA%WIKIPATHWAYS_20200710%WP4685%HOMO SAPIENS	MELANOMA%WIKIPATHWAYS_20200710%WP4685%HOMO SAPIENS	0.00583090379008746	0.158521414608139		CDKN1A/GADD45A/GADD45G/GADD45B/PIK3R3/PIK3R1	1.72960579600199
TGF-BETA SIGNALING PATHWAY%WIKIPATHWAYS_20200710%WP366%HOMO SAPIENS	TGF-BETA SIGNALING PATHWAY%WIKIPATHWAYS_20200710%WP366%HOMO SAPIENS	0.00589970501474926	0.158521414608139		SKI/CDKN1A/MYC/KLF10/PDK1/BCAR1/MAP2K3/SMAD7/PIK3R1/PRKAR2A/TGFBR1/PIAS1/MEF2C/CCND1/STAMBPL1/TGIF1/MEF2A/HDAC1	1.64442154706189
SUDDEN INFANT DEATH SYNDROME (SIDS) SUSCEPTIBILITY PATHWAYS%WIKIPATHWAYS_20200710%WP706%HOMO SAPIENS	SUDDEN INFANT DEATH SYNDROME (SIDS) SUSCEPTIBILITY PATHWAYS%WIKIPATHWAYS_20200710%WP706%HOMO SAPIENS	0.00604229607250755	0.158521414608139		BHLHE40/PPARGC1B/VEGFA/CEBPB/HES1/REST/GATA2/PPARGC1A/RET/SLC1A3/CASP3/NR3C1/TNF/PRKAR2A	1.71412776822701
HYPOTHESIZED PATHWAYS IN PATHOGENESIS OF CARDIOVASCULAR DISEASE%WIKIPATHWAYS_20200710%WP3668%HOMO SAPIENS	HYPOTHESIZED PATHWAYS IN PATHOGENESIS OF CARDIOVASCULAR DISEASE%WIKIPATHWAYS_20200710%WP3668%HOMO SAPIENS	0.00748502994011976	0.160431654676259		TGFBR2/NR2C2/LTBP1/AGTR1/POSTN/LTBP2/SERPINE1/CTGF	-1.66988874074842
NUCLEAR RECEPTORS META-PATHWAY%WIKIPATHWAYS_20200710%WP2882%HOMO SAPIENS	NUCLEAR RECEPTORS META-PATHWAY%WIKIPATHWAYS_20200710%WP2882%HOMO SAPIENS	0.00842696629213483	0.160431654676259		BHLHE40/SLC2A5/SREBF1/GPAM/SLC2A6/GADD45B/MYC/ME1/HES1/CPEB4/FASN/SLC5A6/RGS2/PPARGC1A/SNAI2/HBEGF/SLC2A4/CYP3A5/ACKR3/NR3C1/PTGS2/SLC2A1/SLC7A5/TNF/CYP2A6/PPARA/VDR/SLC39A14	1.54729995236888
DNA DAMAGE RESPONSE%WIKIPATHWAYS_20200710%WP707%HOMO SAPIENS	DNA DAMAGE RESPONSE%WIKIPATHWAYS_20200710%WP707%HOMO SAPIENS	0.00859598853868195	0.160431654676259		CDKN1A/GADD45A/GADD45G/GADD45B/MYC/H2AFX/RAD9A/CASP3	1.70877366415307
NON-SMALL CELL LUNG CANCER%WIKIPATHWAYS_20200710%WP4255%HOMO SAPIENS	NON-SMALL CELL LUNG CANCER%WIKIPATHWAYS_20200710%WP4255%HOMO SAPIENS	0.00890207715133531	0.160431654676259		CDKN1A/GADD45A/GADD45G/GADD45B/PDK1/STAT5A/PIK3R3/PIK3R1/CASP3	1.75637397032665
HEREDITARY LEIOMYOMATOSIS AND RENAL CELL CARCINOMA PATHWAY%WIKIPATHWAYS_20200710%WP4206%HOMO SAPIENS	HEREDITARY LEIOMYOMATOSIS AND RENAL CELL CARCINOMA PATHWAY%WIKIPATHWAYS_20200710%WP4206%HOMO SAPIENS	0.00943396226415094	0.160431654676259		VEGFA/ACACA/PDK1/SLC2A1	1.87077043310226
WNT SIGNALING IN KIDNEY DISEASE%WIKIPATHWAYS_20200710%WP4150%HOMO SAPIENS	WNT SIGNALING IN KIDNEY DISEASE%WIKIPATHWAYS_20200710%WP4150%HOMO SAPIENS	0.00943396226415094	0.160431654676259		WNT3	1.9402910055671
CHOLESTEROL BIOSYNTHESIS PATHWAY%WIKIPATHWAYS_20200710%WP197%HOMO SAPIENS	CHOLESTEROL BIOSYNTHESIS PATHWAY%WIKIPATHWAYS_20200710%WP197%HOMO SAPIENS	0.00952380952380952	0.160431654676259		MVD/HMGCS1/MSMO1/IDI1/NSDHL/SC5D/HMGCR/LSS/DHCR7/SQLE/CYP51A1	1.84981932060393
MITOCHONDRIAL GENE EXPRESSION%WIKIPATHWAYS_20200710%WP391%HOMO SAPIENS	MITOCHONDRIAL GENE EXPRESSION%WIKIPATHWAYS_20200710%WP391%HOMO SAPIENS	0.00952380952380952	0.160431654676259		PPARGC1B/PPARGC1A/PPRC1	1.88941199197229
TP53 NETWORK%WIKIPATHWAYS_20200710%WP1742%HOMO SAPIENS	TP53 NETWORK%WIKIPATHWAYS_20200710%WP1742%HOMO SAPIENS	0.00961538461538462	0.160431654676259		CDKN1A/GADD45A/MYC	1.90073636780102
SREBF AND MIR33 IN CHOLESTEROL AND LIPID HOMEOSTASIS%WIKIPATHWAYS_20200710%WP2011%HOMO SAPIENS	SREBF AND MIR33 IN CHOLESTEROL AND LIPID HOMEOSTASIS%WIKIPATHWAYS_20200710%WP2011%HOMO SAPIENS	0.00977198697068404	0.160431654676259		LDLR/SREBF1/HMGCS1/FASN/PPARGC1A/PPARA/HMGCR	1.89537652110966
COMPLEMENT ACTIVATION%WIKIPATHWAYS_20200710%WP545%HOMO SAPIENS	COMPLEMENT ACTIVATION%WIKIPATHWAYS_20200710%WP545%HOMO SAPIENS	0.0100719424460432	0.160431654676259		C1QB/C3/C1S/CFB/C1QC/C6/CFD/C2/C4B/C4A/C1QA/MASP1	-1.62394369289792
ENDOPLASMIC RETICULUM (ER) STRESS RESPONSE IN CORONAVIRUS INFECTION%WIKIPATHWAYS_20200710%WP4861%HOMO SAPIENS	ENDOPLASMIC RETICULUM (ER) STRESS RESPONSE IN CORONAVIRUS INFECTION%WIKIPATHWAYS_20200710%WP4861%HOMO SAPIENS	0.0114613180515759	0.172300560169983		PPP1R3B/PPP1R3C	1.73934575461725
FATTY ACID BIOSYNTHESIS%WIKIPATHWAYS_20200710%WP357%HOMO SAPIENS	FATTY ACID BIOSYNTHESIS%WIKIPATHWAYS_20200710%WP357%HOMO SAPIENS	0.0119760479041916	0.172300560169983		ACLY/ACACA/FASN/ACSS2/ACSL3/ECHDC1/ACSL1	1.82354116117676
HEART DEVELOPMENT%WIKIPATHWAYS_20200710%WP1591%HOMO SAPIENS	HEART DEVELOPMENT%WIKIPATHWAYS_20200710%WP1591%HOMO SAPIENS	0.0119760479041916	0.172300560169983		BHLHE40/VEGFA/GATA6/HEY2/NOTCH1/TBX2/HEY1/MEF2C	1.81613904643072
MELATONIN METABOLISM AND EFFECTS%WIKIPATHWAYS_20200710%WP3298%HOMO SAPIENS	MELATONIN METABOLISM AND EFFECTS%WIKIPATHWAYS_20200710%WP3298%HOMO SAPIENS	0.0135338345864662	0.183614656237135		CRY1/SULT1A1/NFKB1/EDN1/MAOA/ARNTL/PER3/PER1	-1.56748169150474
MIRNA REGULATION OF DNA DAMAGE RESPONSE%WIKIPATHWAYS_20200710%WP1530%HOMO SAPIENS	MIRNA REGULATION OF DNA DAMAGE RESPONSE%WIKIPATHWAYS_20200710%WP1530%HOMO SAPIENS	0.0142450142450142	0.183614656237135		CDKN1A/GADD45A/GADD45G/GADD45B/MYC/H2AFX/RAD9A/CASP3	1.67038873184124
PATHWAYS IN CLEAR CELL RENAL CELL CARCINOMA%WIKIPATHWAYS_20200710%WP4018%HOMO SAPIENS	PATHWAYS IN CLEAR CELL RENAL CELL CARCINOMA%WIKIPATHWAYS_20200710%WP4018%HOMO SAPIENS	0.0142450142450142	0.183614656237135		BHLHE41/ACLY/VEGFA/ACACA/ME1/FASN	1.64219473636265
ARYL HYDROCARBON RECEPTOR NETPATH%WIKIPATHWAYS_20200710%WP2586%HOMO SAPIENS	ARYL HYDROCARBON RECEPTOR NETPATH%WIKIPATHWAYS_20200710%WP2586%HOMO SAPIENS	0.0144092219020173	0.183614656237135		CDKN1A/VEGFA/MYC/RET/PTGS2/TNF	1.68472986321009
ATM SIGNALING PATHWAY%WIKIPATHWAYS_20200710%WP2516%HOMO SAPIENS	ATM SIGNALING PATHWAY%WIKIPATHWAYS_20200710%WP2516%HOMO SAPIENS	0.0173913043478261	0.205909510618652		CDKN1A/GADD45A/H2AFX/RAD9A	1.76255889973879
AMP-ACTIVATED PROTEIN KINASE (AMPK) SIGNALING%WIKIPATHWAYS_20200710%WP1403%HOMO SAPIENS	AMP-ACTIVATED PROTEIN KINASE (AMPK) SIGNALING%WIKIPATHWAYS_20200710%WP1403%HOMO SAPIENS	0.0174418604651163	0.205909510618652		CDKN1A/PPARGC1B/SREBF1/ACACA/FASN/ADIPOR2/SLC2A4/PIK3R3/GYS1/PIK3R1/GYS2/LEP/HMGCR/SLC2A4RG	1.68031823483131
APOPTOSIS-RELATED NETWORK DUE TO ALTERED NOTCH3 IN OVARIAN CANCER%WIKIPATHWAYS_20200710%WP2864%HOMO SAPIENS	APOPTOSIS-RELATED NETWORK DUE TO ALTERED NOTCH3 IN OVARIAN CANCER%WIKIPATHWAYS_20200710%WP2864%HOMO SAPIENS	0.0175438596491228	0.205909510618652		CDKN1A/BCL3/SOCS3/NET1/SMAD7/TNF/HELLS	1.65377672075215
ALLOGRAFT REJECTION%WIKIPATHWAYS_20200710%WP2328%HOMO SAPIENS	ALLOGRAFT REJECTION%WIKIPATHWAYS_20200710%WP2328%HOMO SAPIENS	0.0198473282442748	0.226972010178117		HLA-E/CASP7/HLA-B/HLA-A/HLA-C/C1QC/HLA-DRB1/AGTR1/C6/C2/HLA-DRB5/HLA-G/HLA-DPA1/IL2RA/HLA-DPB1/VIM/CASP8/HLA-DRA/CXCL12/C4B/HLA-DQB1/HLA-F/C4A/C1QA/CCL19	-1.4989085113013
EICOSANOID SYNTHESIS%WIKIPATHWAYS_20200710%WP167%HOMO SAPIENS	EICOSANOID SYNTHESIS%WIKIPATHWAYS_20200710%WP167%HOMO SAPIENS	0.0228013029315961	0.248641114982578		PNPLA3/PTGS2/PTGS1/PLA2G2A	1.75465647561061
CIRCADIAN RHYTHM RELATED GENES%WIKIPATHWAYS_20200710%WP3594%HOMO SAPIENS	CIRCADIAN RHYTHM RELATED GENES%WIKIPATHWAYS_20200710%WP3594%HOMO SAPIENS	0.0228571428571429	0.248641114982578		BHLHE40/BHLHE41/RORC/SREBF1/NFIL3/ADORA1/KLF10/DRD1/PPARGC1A/ID2/USP2/ADA	1.43310248292457
BLADDER CANCER%WIKIPATHWAYS_20200710%WP2828%HOMO SAPIENS	BLADDER CANCER%WIKIPATHWAYS_20200710%WP2828%HOMO SAPIENS	0.0235294117647059	0.249859943977591		CDKN1A/VEGFA/MYC/HBEGF/PIK3R1/CCND1/KRAS/TYMP	1.72314366511934
NEURAL CREST DIFFERENTIATION%WIKIPATHWAYS_20200710%WP2064%HOMO SAPIENS	NEURAL CREST DIFFERENTIATION%WIKIPATHWAYS_20200710%WP2064%HOMO SAPIENS	0.0257879656160458	0.26558157999206		MYC/SOX9/HES1/HEY2/NOTCH1/SNAI2/MSX1/PMP22/DLL1/HDAC4/AXIN2/SNAI1/TWIST1/MBP	1.59647857008158
NO METABOLISM IN CYSTIC FIBROSIS%WIKIPATHWAYS_20200710%WP4947%HOMO SAPIENS	NO METABOLISM IN CYSTIC FIBROSIS%WIKIPATHWAYS_20200710%WP4947%HOMO SAPIENS	0.0262008733624454	0.26558157999206		PRMT7/DDAH2/NOS2	-1.51275154336863
EPITHELIAL TO MESENCHYMAL TRANSITION IN COLORECTAL CANCER%WIKIPATHWAYS_20200710%WP4239%HOMO SAPIENS	EPITHELIAL TO MESENCHYMAL TRANSITION IN COLORECTAL CANCER%WIKIPATHWAYS_20200710%WP4239%HOMO SAPIENS	0.027190332326284	0.269486404833837		WNT3/NOTCH1/JAG2/ID2/SNAI2/JAG1/PIK3R3/MAP2K3/DLL1/PIK3R1/WNT9A/SNAI1/TWIST1/TGFBR1	1.44227477075066
1Q21.1 COPY NUMBER VARIATION SYNDROME%WIKIPATHWAYS_20200710%WP4905%HOMO SAPIENS	1Q21.1 COPY NUMBER VARIATION SYNDROME%WIKIPATHWAYS_20200710%WP4905%HOMO SAPIENS	0.0284431137724551	0.27577453788076		PRKAG2/GJA1/F11R/PRKAA1/GJA5/NOTCH2/NOTCH2NL/NBPF12/ACP6	-1.48851173330705
ONCOSTATIN M SIGNALING PATHWAY%WIKIPATHWAYS_20200710%WP2374%HOMO SAPIENS	ONCOSTATIN M SIGNALING PATHWAY%WIKIPATHWAYS_20200710%WP2374%HOMO SAPIENS	0.0290697674418605	0.275853537852548		LDLR/VEGFA/CEBPB/SOCS3/CYR61/PIK3R1/CASP3/PRKCD/IRS1/PIAS3	1.58383607451601
ANGIOPOIETIN LIKE PROTEIN 8 REGULATORY PATHWAY%WIKIPATHWAYS_20200710%WP3915%HOMO SAPIENS	ANGIOPOIETIN LIKE PROTEIN 8 REGULATORY PATHWAY%WIKIPATHWAYS_20200710%WP3915%HOMO SAPIENS	0.0297619047619048	0.276537698412698		C19orf80/SREBF1/FASN/SLC2A4/PIK3R3/MAP2K3/GYS1/PIK3R1/SLC2A1	1.4532713631445
STATIN PATHWAY%WIKIPATHWAYS_20200710%WP430%HOMO SAPIENS	STATIN PATHWAY%WIKIPATHWAYS_20200710%WP430%HOMO SAPIENS	0.0325732899022801	0.296483414212591		APOC1/LDLR	1.71847991476834
